{
  "rules": {
    "array-type": [
      true,
      "array"
    ],
    "align": [
      true,
      "statements"
    ],
    "ban": [
      false
    ],
    "class-name": true,
    "comment-format": [
      true,
      "check-space"
    ],
    "curly": true,
    "eofline": true,
    "indent": [
      true,
      "spaces"
    ],
    "interface-name": [
      true,
      "never-prefix"
    ],
    "jsdoc-format": true,
    "max-line-length": [
      false,
      140
    ],
    "semicolon": [
      true,
      "always"
    ],
    "member-access": false,
    "member-ordering": [
      false,
      {
        "order": "fields-first"
      }
    ],
    "new-parens": true,
    "no-arg": false,
    "no-default-export": true,
    "no-duplicate-variable": true,
    "no-inferrable-types": false,
    "no-shadowed-variable": false,
    "no-trailing-whitespace": true,
    "no-unused-expression": false,
    "no-string-throw": true,
    "no-var-keyword": true,
    "prefer-const": true,
    "one-line": [
      true,
      "check-open-brace",
      "check-catch",
      "check-else",
      "check-finally",
      "check-whitespace"
    ],
    "one-variable-per-declaration": [
      false,
      "ignore-for-loop"
    ],
    "quotemark": [
      true,
      "single",
      "avoid-escape"
    ],
    "trailing-comma": [
      true,
      {
        "multiline": "always",
        "singleline": "never"
      }
    ],
    "typedef": [
      true,
      "property-declaration"
    ],
    "typedef-whitespace": [
      true,
      {
        "call-signature": "nospace",
        "index-signature": "nospace",
        "parameter": "nospace",
        "property-declaration": "nospace",
        "variable-declaration": "nospace"
      },
      {
        "call-signature": "space",
        "index-signature": "space",
        "parameter": "space",
        "property-declaration": "space",
        "variable-declaration": "space"
      }
    ],
    "use-isnan": true,
    "variable-name": [
      false,
      "check-format",
      "allow-leading-underscore",
      "ban-keywords"
    ],
    "whitespace": [
      true,
      "check-branch",
      "check-decl",
      "check-operator",
      "check-separator",
      "check-type"
    ]
  }
}